                             2024-01-04 09:56:37 - Pontszam: 0
                             2024-01-04 09:59:57 - Pontszam: 4
                             2024-01-04 10:20:25 - Pontszam: 0
                             2024-01-04 10:21:43 - Pontszam: 0
                             2024-01-04 10:23:42 - Pontszam: 1
                             2024-01-04 10:25:28 - Pontszam: 2
                             2024-01-04 10:30:58 - Pontszam: 11
                             2024-01-05 12:35:24 - Pontszam: 16
                             2024-01-05 12:36:38 - Pontszam: 19
                             2024-01-05 12:40:57 - Pontszam: 0
                             2024-01-05 12:41:16 - Pontszam: 2
                             2024-01-05 12:42:07 - Pontszam: 2
                             2024-01-05 12:42:19 - Pontszam: 2
                             2024-01-09 01:48:33 - Pontszam: 0
                             2024-01-09 01:49:18 - Pontszam: 10
                             2024-01-10 07:55:48 - Pontszam: 1
                             2024-01-10 07:56:12 - Pontszam: 3
                             2024-01-10 07:56:54 - Pontszam: 6
                             2024-01-10 07:58:04 - Pontszam: 20
                             2024-01-11 10:16:04 - Pontszam: 1
                             2024-01-11 10:18:12 - Pontszam: 18
                             2024-01-11 10:18:48 - Pontszam: 0
                             2024-01-11 10:19:00 - Pontszam: 0
                             2024-01-11 10:19:50 - Pontszam: 4
                             2024-01-11 10:20:05 - Pontszam: 0
                             2024-01-11 10:28:21 - Pontszam: 3
                             2024-01-11 10:33:46 - Pontszam: 5
